…
```r
## load BSTS library
library(bsts)
library(CausalImpact)
library(tibble) ## load a data table class with convenience functions
## LOAD FROM FILE
df1 <- as_tibble(read.csv(dat1$bsts.df1.filepath)) ##convert table, print labels
print(df1)
```

```
## # A tibble: 520 x 10
##    y_observed c1_mean   c2_mean  c3_mean  c1_sd  c2_sd   c3_sd  c1_skew  c2_skew
##         <dbl>   <dbl>     <dbl>    <dbl>  <dbl>  <dbl>   <dbl>    <dbl>    <dbl>
##  1     0.0234  0.0111 -0.00930   0.0187  0.0542 0.0490 0.0102   0.00423  2.64e-1
##  2     0.134   0.0272 -0.00735   0.00747 0.0453 0.0466 0.00905 -0.248    2.81e-1
##  3     0.815   0.0288  0.00206   0.0683  0.0503 0.0479 0.00817 -0.234   -3.39e-1
##  4     0.578   0.0519  0.00210   0.129   0.0411 0.0443 0.0113   0.317   -1.70e-1
##  5     0.278   0.0565 -0.00104   0.123   0.0441 0.0438 0.00974 -0.0773   2.48e-1
##  6    -0.367   0.0491 -0.000560  0.0670  0.0424 0.0539 0.0106  -0.353    9.81e-2
##  7     1.45    0.0728 -0.00903  -0.0777  0.0530 0.0526 0.00988  0.0278  -2.66e-1
##  8     1.85    0.0861 -0.00824   0.286   0.0557 0.0449 0.00913  0.194   -4.21e-3
##  9     1.90    0.0834  0.000128  0.396   0.0543 0.0433 0.0104  -0.331   -4.16e-2
## 10     3.13    0.106   0.00466   0.402   0.0441 0.0459 0.00964 -0.135    1.86e-4
## # ... with 510 more rows, and 1 more variable: c3_skew <dbl>
```
…
