…
```r
## load BSTS library
library(bsts)
library(CausalImpact)
library(tibble) ## load a data table class with convenience functions
## LOAD FROM FILE
filename <-'data_bsts_vignette_S4__sim-sd0.01_quadratic_agg_bsts_df1-NOctrl.csv'
df1 <- as_tibble(read.csv(filename)) ##convert table to print labels
print(df1)
```

```
## # A tibble: 520 x 10
##    y_observed    cov1      cov2    cov3   cov4   cov5    cov6     cov7     cov8
##         <dbl>   <dbl>     <dbl>   <dbl>  <dbl>  <dbl>   <dbl>    <dbl>    <dbl>
##  1     0.0859 0.00199 -0.00108   0.0198 0.0490 0.0527 0.00989 -0.207    0.229  
##  2     0.276  0.0156  -0.000129  0.0343 0.0497 0.0484 0.0107   0.126    0.0874 
##  3    -0.127  0.0331   0.0118    0.0336 0.0468 0.0496 0.00943 -0.342    0.0130 
##  4     0.757  0.0343   0.00424  -0.0229 0.0500 0.0446 0.00992 -0.286   -0.00126
##  5     0.695  0.0494   0.00786   0.145  0.0537 0.0506 0.00913  0.153   -0.359  
##  6     1.45   0.0719   0.00344   0.149  0.0434 0.0492 0.0107   0.0614  -0.285  
##  7     1.54   0.0770   0.00629   0.282  0.0520 0.0518 0.00991 -0.00741 -0.268  
##  8     1.75   0.0823   0.00924   0.329  0.0488 0.0565 0.00996 -0.120    0.415  
##  9     2.43   0.0824  -0.00421   0.343  0.0496 0.0501 0.00954 -0.216   -0.321  
## 10     1.92   0.0962  -0.00722   0.488  0.0473 0.0488 0.00981  0.291   -0.203  
## # ... with 510 more rows, and 1 more variable: cov9 <dbl>
```
…
